{
  "project_info": {
    "project_number": "643775964409",
    "firebase_url": "https://zertu-app-2018.firebaseio.com",
    "project_id": "zertu-app-2018",
    "storage_bucket": "zertu-app-2018.appspot.com"
  },
  "client": [
    {
      "client_info": {
        "mobilesdk_app_id": "1:643775964409:android:53613ff2e3fb6116",
        "android_client_info": {
          "package_name": "com.medialima.zertu"
        }
      },
      "oauth_client": [
        {
          "client_id": "643775964409-mnfpaq867rri41pfkesmcvetp3sc0efv.apps.googleusercontent.com",
          "client_type": 3
        }
      ],
      "api_key": [
        {
          "current_key": "AIzaSyAsyFtPb9zUqsukG0P3sOuL9Vu-WpnqsA0"
        }
      ],
      "services": {
        "analytics_service": {
          "status": 1
        },
        "appinvite_service": {
          "status": 1,
          "other_platform_oauth_client": []
        },
        "ads_service": {
          "status": 2
        }
      }
    }
  ],
  "configuration_version": "1"
}